Analysis
…
## See spec(...) for full column specifications.

raw_data

## # A tibble: 1,700 x 31
##    submission_id QUD      RT   age comments competitor_loca~ condition education
##            <dbl> <lgl> <dbl> <dbl> <chr>    <chr>            <chr>     <chr>    
##  1          1654 NA     6096    NA <NA>     right            control   <NA>     
##  2          1654 NA     5915    NA <NA>     right            trial     <NA>     
##  3          1654 NA     4485    NA <NA>     right            control   <NA>     
##  4          1654 NA     4075    NA <NA>     right            control   <NA>     
##  5          1654 NA     3968    NA <NA>     right            trial     <NA>     
##  6          1654 NA     5427    NA <NA>     right            control   <NA>     
##  7          1654 NA     4333    NA <NA>     right            control   <NA>     
##  8          1654 NA     4210    NA <NA>     right            trial     <NA>     
##  9          1654 NA     4193    NA <NA>     left             control   <NA>     
## 10          1654 NA     3536    NA <NA>     left             control   <NA>     
## # ... with 1,690 more rows, and 23 more variables: endTime <dbl>,
## #   experiment_id <dbl>, gender <chr>, label_competitor <chr>,
## #   label_target <chr>, languages <chr>, mousetrackingDuration <dbl>,
## #   mousetrackingStartTime <dbl>, mousetrackingTime <chr>,
## #   mousetrackingX <chr>, mousetrackingY <chr>, option1 <chr>, option2 <chr>,
## #   optionLeft <chr>, optionRight <chr>, question <chr>, response <chr>,
## #   startDate <chr>, startTime <dbl>, target_location <chr>, timeSpent <dbl>,
## #   trial_name <chr>, trial_number <dbl>
…
## Warning in submission_id %in%
## raw_data$submission_id[as.double(raw_data$response) >= : NAs durch Umwandlung
## erzeugt

## # A tibble: 532 x 31
##    submission_id QUD      RT   age comments competitor_loca~ condition education
##            <dbl> <lgl> <dbl> <dbl> <chr>    <chr>            <chr>     <chr>    
##  1          1654 NA     4075    NA <NA>     right            control   <NA>     
##  2          1654 NA     3968    NA <NA>     right            trial     <NA>     
##  3          1654 NA     5427    NA <NA>     right            control   <NA>     
##  4          1654 NA     4333    NA <NA>     right            control   <NA>     
##  5          1654 NA     4210    NA <NA>     right            trial     <NA>     
##  6          1654 NA     4193    NA <NA>     left             control   <NA>     
##  7          1654 NA     3536    NA <NA>     left             control   <NA>     
##  8          1654 NA     4565    NA <NA>     right            trial     <NA>     
##  9          1654 NA     5753    NA <NA>     left             control   <NA>     
## 10          1654 NA     4136    NA <NA>     left             control   <NA>     
## # ... with 522 more rows, and 23 more variables: endTime <dbl>,
## #   experiment_id <dbl>, gender <chr>, label_competitor <chr>,
## #   label_target <chr>, languages <chr>, mousetrackingDuration <dbl>,
## #   mousetrackingStartTime <dbl>, mousetrackingTime <chr>,
## #   mousetrackingX <chr>, mousetrackingY <chr>, option1 <chr>, option2 <chr>,
## #   optionLeft <chr>, optionRight <chr>, question <chr>, response <chr>,
## #   startDate <chr>, startTime <dbl>, target_location <chr>, timeSpent <dbl>,
## #   trial_name <chr>, trial_number <dbl>
…
#C_S_test

chisq.test(tidy_data$condition, tidy_data$response)

## 
##  Pearson's Chi-squared test with Yates' continuity correction
## 
## data:  tidy_data$condition and tidy_data$response
## X-squared = 14.589, df = 1, p-value = 0.0001337

filter out inaccurate assignments

data <- tidy_data %>% filter(response == 'target') %>% print

## # A tibble: 507 x 31
##    submission_id QUD      RT   age comments competitor_loca~ condition education
##            <dbl> <lgl> <dbl> <dbl> <chr>    <chr>            <chr>     <chr>    
##  1          1654 NA     4075    NA <NA>     right            control   <NA>     
##  2          1654 NA     3968    NA <NA>     right            trial     <NA>     
##  3          1654 NA     5427    NA <NA>     right            control   <NA>     
##  4          1654 NA     4333    NA <NA>     right            control   <NA>     
##  5          1654 NA     4193    NA <NA>     left             control   <NA>     
##  6          1654 NA     3536    NA <NA>     left             control   <NA>     
##  7          1654 NA     5753    NA <NA>     left             control   <NA>     
##  8          1654 NA     4136    NA <NA>     left             control   <NA>     
##  9          1654 NA     4180    NA <NA>     right            control   <NA>     
## 10          1654 NA     3434    NA <NA>     left             control   <NA>     
## # ... with 497 more rows, and 23 more variables: endTime <dbl>,
## #   experiment_id <dbl>, gender <chr>, label_competitor <chr>,
## #   label_target <chr>, languages <chr>, mousetrackingDuration <dbl>,
## #   mousetrackingStartTime <dbl>, mousetrackingTime <chr>,
## #   mousetrackingX <chr>, mousetrackingY <chr>, option1 <chr>, option2 <chr>,
## #   optionLeft <chr>, optionRight <chr>, question <chr>, response <chr>,
## #   startDate <chr>, startTime <dbl>, target_location <chr>, timeSpent <dbl>,
## #   trial_name <chr>, trial_number <dbl>
…
time_normalized_data

## # A tibble: 507 x 31
##    submission_id QUD      RT   age comments competitor_loca~ condition education
##            <dbl> <lgl> <dbl> <dbl> <chr>    <chr>            <chr>     <chr>    
##  1          1654 NA     4075    NA <NA>     right            control   <NA>     
##  2          1654 NA     3968    NA <NA>     right            trial     <NA>     
##  3          1654 NA     5427    NA <NA>     right            control   <NA>     
##  4          1654 NA     4333    NA <NA>     right            control   <NA>     
##  5          1654 NA     4193    NA <NA>     left             control   <NA>     
##  6          1654 NA     3536    NA <NA>     left             control   <NA>     
##  7          1654 NA     5753    NA <NA>     left             control   <NA>     
##  8          1654 NA     4136    NA <NA>     left             control   <NA>     
##  9          1654 NA     4180    NA <NA>     right            control   <NA>     
## 10          1654 NA     3434    NA <NA>     left             control   <NA>     
## # ... with 497 more rows, and 23 more variables: endTime <dbl>,
## #   experiment_id <dbl>, gender <chr>, label_competitor <chr>,
## #   label_target <chr>, languages <chr>, mousetrackingDuration <dbl>,
## #   mousetrackingStartTime <dbl>, mousetrackingTime <list>,
## #   mousetrackingX <list>, mousetrackingY <list>, option1 <chr>, option2 <chr>,
## #   optionLeft <chr>, optionRight <chr>, question <chr>, response <chr>,
## #   startDate <chr>, startTime <dbl>, target_location <chr>, timeSpent <dbl>,
## #   trial_name <chr>, trial_number <dbl>

Normalize horizontally

hor_normalized_data <- time_normalized_data %>% mutate(
  mousetrackingHorizontal = mousetrackingX %>% imap(function(x,i) { x*(-1)**(as.double(target_location[i]=='left'))})
)

hor_normalized_data

## # A tibble: 507 x 32
##    submission_id QUD      RT   age comments competitor_loca~ condition education
##            <dbl> <lgl> <dbl> <dbl> <chr>    <chr>            <chr>     <chr>    
##  1          1654 NA     4075    NA <NA>     right            control   <NA>     
##  2          1654 NA     3968    NA <NA>     right            trial     <NA>     
##  3          1654 NA     5427    NA <NA>     right            control   <NA>     
##  4          1654 NA     4333    NA <NA>     right            control   <NA>     
##  5          1654 NA     4193    NA <NA>     left             control   <NA>     
##  6          1654 NA     3536    NA <NA>     left             control   <NA>     
##  7          1654 NA     5753    NA <NA>     left             control   <NA>     
##  8          1654 NA     4136    NA <NA>     left             control   <NA>     
##  9          1654 NA     4180    NA <NA>     right            control   <NA>     
## 10          1654 NA     3434    NA <NA>     left             control   <NA>     
## # ... with 497 more rows, and 24 more variables: endTime <dbl>,
## #   experiment_id <dbl>, gender <chr>, label_competitor <chr>,
## #   label_target <chr>, languages <chr>, mousetrackingDuration <dbl>,
## #   mousetrackingStartTime <dbl>, mousetrackingTime <list>,
## #   mousetrackingX <list>, mousetrackingY <list>, option1 <chr>, option2 <chr>,
## #   optionLeft <chr>, optionRight <chr>, question <chr>, response <chr>,
## #   startDate <chr>, startTime <dbl>, target_location <chr>, timeSpent <dbl>,
## #   trial_name <chr>, trial_number <dbl>, mousetrackingHorizontal <list>

Visualize trajectories

plot <- hor_normalized_data %>% unnest(cols=c(mousetrackingHorizontal, mousetrackingTime,mousetrackingY)) %>% select(submission_id, trial_number, mousetrackingHorizontal, mousetrackingTime, mousetrackingY,condition)

plot

## # A tibble: 51,207 x 6
##    submission_id trial_number mousetrackingHo~ mousetrackingTi~ mousetrackingY
##            <dbl>        <dbl>            <dbl>            <dbl>          <dbl>
##  1          1654            1            0                 0             0    
##  2          1654            1            0.494             1.01         -0.247
##  3          1654            1            1.74              2.02         -0.869
##  4          1654            1            3.45              3.03         -1.56 
##  5          1654            1            7.08              4.04         -6.25 
##  6          1654            1            8.84              5.05        -11.5  
##  7          1654            1            9.80              6.06        -16.0  
##  8          1654            1           10.7               7.07        -21.3  
##  9          1654            1           12.2               8.08        -27.3  
## 10          1654            1           14.0               9.09        -35.4  
## # ... with 51,197 more rows, and 1 more variable: condition <chr>

mean_plot <- plot %>% group_by(condition, mousetrackingTime) %>% summarise(mean_h = mean(mousetrackingHorizontal)) %>% select(mean_h, condition, mousetrackingTime) %>% print

## `summarise()` regrouping output by 'condition' (override with `.groups` argument)

## # A tibble: 202 x 3
## # Groups:   condition [2]
##    mean_h condition mousetrackingTime
##     <dbl> <chr>                 <dbl>
##  1 0      control                0   
##  2 0.0326 control                1.01
##  3 0.0810 control                2.02
##  4 0.154  control                3.03
##  5 0.431  control                4.04
##  6 0.899  control                5.05
##  7 1.36   control                6.06
##  8 1.64   control                7.07
##  9 2.17   control                8.08
## 10 2.31   control                9.09
## # ... with 192 more rows
…
anova_data <- plot %>% mutate(mousetrackingTime = ifelse(mousetrackingTime < 34, 1, ifelse(mousetrackingTime > 67, 3, 2)))
anova_data %>% print %>% ggplot(aes(x=factor(mousetrackingTime), y=plyr::round_any(mousetrackingHorizontal, 50))) +
  geom_jitter(aes(color=condition), alpha=0.05) +
  geom_violin(aes(color=condition), trim = FALSE, position = position_dodge(0.9)) + 
  geom_boxplot(aes(color = condition), width = 0.15, position = position_dodge(0.9), outlier.alpha = 0) %>% print

## # A tibble: 51,207 x 6
##    submission_id trial_number mousetrackingHo~ mousetrackingTi~ mousetrackingY
##            <dbl>        <dbl>            <dbl>            <dbl>          <dbl>
##  1          1654            1            0                    1          0    
##  2          1654            1            0.494                1         -0.247
##  3          1654            1            1.74                 1         -0.869
##  4          1654            1            3.45                 1         -1.56 
##  5          1654            1            7.08                 1         -6.25 
##  6          1654            1            8.84                 1        -11.5  
##  7          1654            1            9.80                 1        -16.0  
##  8          1654            1           10.7                  1        -21.3  
##  9          1654            1           12.2                  1        -27.3  
## 10          1654            1           14.0                  1        -35.4  
## # ... with 51,197 more rows, and 1 more variable: condition <chr>
## mapping: colour = ~condition 
## geom_boxplot: outlier.colour = NULL, outlier.fill = NULL, outlier.shape = 19, outlier.size = 1.5, outlier.stroke = 0.5, outlier.alpha = 0, notch = FALSE, notchwidth = 0.5, varwidth = FALSE, na.rm = FALSE, orientation = NA, width = 0.15
## stat_boxplot: na.rm = FALSE, orientation = NA, width = 0.15
## position_dodge
…
  mousetrackingX = mousetrackingX %>% imap(function(x,i) {
    x = unlist(as.double(str_split(x, fixed('|'), simplify=TRUE)))
    x/abs(x[length(x)-1])
  }),
  mousetrackingY = mousetrackingY %>% imap(function(y,i ) {
    y = unlist(as.double(str_split(y, fixed('|'), simplify=TRUE)))
    y/abs(y[length(y)-1])*-1
  }),
  mousetrackingTime = mousetrackingTime %>% imap(function(t,i ) {
    unlist(as.double(str_split(t, fixed('|'), simplify=TRUE)))
  })
)
space_normalized_data

## # A tibble: 507 x 31
##    submission_id QUD      RT   age comments competitor_loca~ condition education
##            <dbl> <lgl> <dbl> <dbl> <chr>    <chr>            <chr>     <chr>    
##  1          1654 NA     4075    NA <NA>     right            control   <NA>     
##  2          1654 NA     3968    NA <NA>     right            trial     <NA>     
##  3          1654 NA     5427    NA <NA>     right            control   <NA>     
##  4          1654 NA     4333    NA <NA>     right            control   <NA>     
##  5          1654 NA     4193    NA <NA>     left             control   <NA>     
##  6          1654 NA     3536    NA <NA>     left             control   <NA>     
##  7          1654 NA     5753    NA <NA>     left             control   <NA>     
##  8          1654 NA     4136    NA <NA>     left             control   <NA>     
##  9          1654 NA     4180    NA <NA>     right            control   <NA>     
## 10          1654 NA     3434    NA <NA>     left             control   <NA>     
## # ... with 497 more rows, and 23 more variables: endTime <dbl>,
## #   experiment_id <dbl>, gender <chr>, label_competitor <chr>,
## #   label_target <chr>, languages <chr>, mousetrackingDuration <dbl>,
## #   mousetrackingStartTime <dbl>, mousetrackingTime <list>,
## #   mousetrackingX <list>, mousetrackingY <list>, option1 <chr>, option2 <chr>,
## #   optionLeft <chr>, optionRight <chr>, question <chr>, response <chr>,
## #   startDate <chr>, startTime <dbl>, target_location <chr>, timeSpent <dbl>,
## #   trial_name <chr>, trial_number <dbl>

Normalize horizontally

hor_space_normalized_data <- space_normalized_data %>% mutate(
  mousetrackingHorizontal = mousetrackingX %>% imap(function(x,i) { x*(-1)**(as.double(target_location[i]=='left'))})
)

hor_space_normalized_data

## # A tibble: 507 x 32
##    submission_id QUD      RT   age comments competitor_loca~ condition education
##            <dbl> <lgl> <dbl> <dbl> <chr>    <chr>            <chr>     <chr>    
##  1          1654 NA     4075    NA <NA>     right            control   <NA>     
##  2          1654 NA     3968    NA <NA>     right            trial     <NA>     
##  3          1654 NA     5427    NA <NA>     right            control   <NA>     
##  4          1654 NA     4333    NA <NA>     right            control   <NA>     
##  5          1654 NA     4193    NA <NA>     left             control   <NA>     
##  6          1654 NA     3536    NA <NA>     left             control   <NA>     
##  7          1654 NA     5753    NA <NA>     left             control   <NA>     
##  8          1654 NA     4136    NA <NA>     left             control   <NA>     
##  9          1654 NA     4180    NA <NA>     right            control   <NA>     
## 10          1654 NA     3434    NA <NA>     left             control   <NA>     
## # ... with 497 more rows, and 24 more variables: endTime <dbl>,
## #   experiment_id <dbl>, gender <chr>, label_competitor <chr>,
## #   label_target <chr>, languages <chr>, mousetrackingDuration <dbl>,
## #   mousetrackingStartTime <dbl>, mousetrackingTime <list>,
## #   mousetrackingX <list>, mousetrackingY <list>, option1 <chr>, option2 <chr>,
## #   optionLeft <chr>, optionRight <chr>, question <chr>, response <chr>,
## #   startDate <chr>, startTime <dbl>, target_location <chr>, timeSpent <dbl>,
## #   trial_name <chr>, trial_number <dbl>, mousetrackingHorizontal <list>

Visualize trajectories

plot <- hor_space_normalized_data %>% unnest(cols=c(mousetrackingHorizontal, mousetrackingTime, mousetrackingY)) %>% select(submission_id, trial_number, mousetrackingHorizontal, mousetrackingTime, condition, mousetrackingY)

plot

## # A tibble: 51,592 x 6
##    submission_id trial_number mousetrackingHo~ mousetrackingTi~ condition
##            <dbl>        <dbl>            <dbl>            <dbl> <chr>    
##  1          1654            1          0                      0 control  
##  2          1654            1          0                      9 control  
##  3          1654            1          0.00256               33 control  
##  4          1654            1          0.00384               43 control  
##  5          1654            1          0.00896               59 control  
##  6          1654            1          0.0115                76 control  
##  7          1654            1          0.0128                93 control  
##  8          1654            1          0.0141               109 control  
##  9          1654            1          0.0166               126 control  
## 10          1654            1          0.0192               143 control  
## # ... with 51,582 more rows, and 1 more variable: mousetrackingY <dbl>
…
